%YAML 1.1
%TAG !u! tag:unity3d.com,2011:
--- !u!114 &11400000
MonoBehaviour:
  m_ObjectHideFlags: 0
  m_CorrespondingSourceObject: {fileID: 0}
  m_PrefabInstance: {fileID: 0}
  m_PrefabAsset: {fileID: 0}
  m_GameObject: {fileID: 0}
  m_Enabled: 1
  m_EditorHideFlags: 0
  m_Script: {fileID: 11500000, guid: a7d7c18c06d74b7d810ffbdcd8f46b9c, type: 3}
  m_Name: IronSword
  m_EditorClassIdentifier: 
  id: 0
  itemName: Iron Sword
  icon: {fileID: 1875930364, guid: bf3c827c92ab1564aa68c8a82682c6e0, type: 3}
  sprite: {fileID: 21300000, guid: a16a464da4a12b04fae8a0514e70c496, type: 3}
  price: 1400
  fastAcces: 0
  equiped: 0
  attackDmg: 4
