%YAML 1.1
%TAG !u! tag:unity3d.com,2011:
--- !u!114 &11400000
MonoBehaviour:
  m_ObjectHideFlags: 0
  m_CorrespondingSourceObject: {fileID: 0}
  m_PrefabInstance: {fileID: 0}
  m_PrefabAsset: {fileID: 0}
  m_GameObject: {fileID: 0}
  m_Enabled: 1
  m_EditorHideFlags: 0
  m_Script: {fileID: 11500000, guid: a7d7c18c06d74b7d810ffbdcd8f46b9c, type: 3}
  m_Name: Weapon Item 2
  m_EditorClassIdentifier: 
  id: 0
  itemName: Weapon
  icon: {fileID: -2680935109507513731, guid: a0d3fbbc155eb404a87f827b40a48dfe, type: 3}
  sprite: {fileID: -2680935109507513731, guid: a0d3fbbc155eb404a87f827b40a48dfe, type: 3}
  price: 0
  fastAcces: 0
  equiped: 0
  attackDmg: 0
