%YAML 1.1
%TAG !u! tag:unity3d.com,2011:
--- !u!114 &11400000
MonoBehaviour:
  m_ObjectHideFlags: 0
  m_CorrespondingSourceObject: {fileID: 0}
  m_PrefabInstance: {fileID: 0}
  m_PrefabAsset: {fileID: 0}
  m_GameObject: {fileID: 0}
  m_Enabled: 1
  m_EditorHideFlags: 0
  m_Script: {fileID: 11500000, guid: 6f48f1f18b4344ff998254ecf4bb7ccf, type: 3}
  m_Name: SuperPocionPlayer2
  m_EditorClassIdentifier: 
  id: 0
  itemName: Super Pocion
  icon: {fileID: -600108142, guid: bf3c827c92ab1564aa68c8a82682c6e0, type: 3}
  sprite: {fileID: 0}
  price: 200
  fastAcces: 0
  maxStack: 10
  heal: 15
