%YAML 1.1
%TAG !u! tag:unity3d.com,2011:
--- !u!114 &11400000
MonoBehaviour:
  m_ObjectHideFlags: 0
  m_CorrespondingSourceObject: {fileID: 0}
  m_PrefabInstance: {fileID: 0}
  m_PrefabAsset: {fileID: 0}
  m_GameObject: {fileID: 0}
  m_Enabled: 1
  m_EditorHideFlags: 0
  m_Script: {fileID: 11500000, guid: 8a5f72d97bc949edb4e82f8d094869a7, type: 3}
  m_Name: GoldArmorPlayer2
  m_EditorClassIdentifier: 
  id: 0
  itemName: Gold Armor
  icon: {fileID: 1911266193, guid: bf3c827c92ab1564aa68c8a82682c6e0, type: 3}
  sprite: {fileID: 21300000, guid: 39e57051f26f0384dbf3f53b24839d57, type: 3}
  price: 2500
  fastAcces: 0
  equiped: 0
  defenseStat: 4
