%YAML 1.1
%TAG !u! tag:unity3d.com,2011:
--- !u!114 &11400000
MonoBehaviour:
  m_ObjectHideFlags: 0
  m_CorrespondingSourceObject: {fileID: 0}
  m_PrefabInstance: {fileID: 0}
  m_PrefabAsset: {fileID: 0}
  m_GameObject: {fileID: 0}
  m_Enabled: 1
  m_EditorHideFlags: 0
  m_Script: {fileID: 11500000, guid: 5d0a50d0eadb267408bee3296f2c1234, type: 3}
  m_Name: Current Player 1
  m_EditorClassIdentifier: 
  spriteAmorPlayer: {fileID: 21300000, guid: 9973614a341b7d74abb66ef53ad18d32, type: 3}
  spriteSwordPlayer: {fileID: 21300000, guid: 61cea344cb6da3d45b0e318319b8322c, type: 3}
  abilityRicochet: 0
  abilityBoomerang: 1
  abilityExplosion: 0
  abilityRepel: 1
  experienceRequired: 100
  playerLevel: 1
  experience: 45.430016
  gold: 36
  playerNumber: 1
  speed: 5
  maxHp: 20
  hp: 15
  attack: 17
  defense: 17
