%YAML 1.1
%TAG !u! tag:unity3d.com,2011:
--- !u!114 &11400000
MonoBehaviour:
  m_ObjectHideFlags: 0
  m_CorrespondingSourceObject: {fileID: 0}
  m_PrefabInstance: {fileID: 0}
  m_PrefabAsset: {fileID: 0}
  m_GameObject: {fileID: 0}
  m_Enabled: 1
  m_EditorHideFlags: 0
  m_Script: {fileID: 11500000, guid: 402706ca880585d419a2088458943807, type: 3}
  m_Name: Enemy Mele
  m_EditorClassIdentifier: 
  experienceMin: 5
  experienceMax: 10
  goldMin: 2
  goldMax: 10
  color: {r: 1, g: 0.9235792, b: 0, a: 1}
  maxHP: 5
  moveSpeed: 2
  damage: 2
  rangeDetection: 9
  rangeAttack: 1.5
