%YAML 1.1
%TAG !u! tag:unity3d.com,2011:
--- !u!114 &11400000
MonoBehaviour:
  m_ObjectHideFlags: 0
  m_CorrespondingSourceObject: {fileID: 0}
  m_PrefabInstance: {fileID: 0}
  m_PrefabAsset: {fileID: 0}
  m_GameObject: {fileID: 0}
  m_Enabled: 1
  m_EditorHideFlags: 0
  m_Script: {fileID: 11500000, guid: 6dea476711829374c83cf81b9b033cbe, type: 3}
  m_Name: Player2StartBacpack
  m_EditorClassIdentifier: 
  m_ItemSlots:
  - item: {fileID: 11400000, guid: ffc24d0d6287c3d48b599bdc2e0b9981, type: 2}
    amount: 5
    price: 0
