{
    "name": "InputAction",
    "maps": [
        {
            "name": "Player",
            "id": "afabff24-777f-495d-8d7b-d8215edb609c",
            "actions": [
                {
                    "name": "Move",
                    "type": "Value",
                    "id": "1fa0e1f2-6e2a-4234-8042-9a5fcd18c741",
                    "expectedControlType": "Vector2",
                    "processors": "",
                    "interactions": "",
                    "initialStateCheck": true
                },
                {
                    "name": "Dash",
                    "type": "Button",
                    "id": "e4d26943-3a16-475b-a727-4d56456b196c",
                    "expectedControlType": "Button",
                    "processors": "",
                    "interactions": "",
                    "initialStateCheck": false
                },
                {
                    "name": "Attack",
                    "type": "Button",
                    "id": "5e3fa3ff-e9f4-434f-8968-479df65ca7d5",
                    "expectedControlType": "Button",
                    "processors": "",
                    "interactions": "",
                    "initialStateCheck": false
                },
                {
                    "name": "Ability 1",
                    "type": "Button",
                    "id": "80261916-5633-45a4-a99f-b8a591274e26",
                    "expectedControlType": "Button",
                    "processors": "",
                    "interactions": "",
                    "initialStateCheck": false
                },
                {
                    "name": "Ability 2",
                    "type": "Button",
                    "id": "bba4c945-9cdc-4b16-b9ba-667753863d58",
                    "expectedControlType": "Button",
                    "processors": "",
                    "interactions": "",
                    "initialStateCheck": false
                },
                {
                    "name": "Show/Hide",
                    "type": "Button",
                    "id": "e452ae43-57b8-4dfe-976c-09ee630c59bc",
                    "expectedControlType": "Button",
                    "processors": "",
                    "interactions": "",
                    "initialStateCheck": false
                },
                {
                    "name": "Interact Shop",
                    "type": "Button",
                    "id": "dc368a07-0c82-4621-9726-c33d79d41a0b",
                    "expectedControlType": "Button",
                    "processors": "",
                    "interactions": "",
                    "initialStateCheck": false
                },
                {
                    "name": "Slot 1",
                    "type": "Button",
                    "id": "321c3a9f-adfb-4cdc-809d-2d3e8f4b17fe",
                    "expectedControlType": "Button",
                    "processors": "",
                    "interactions": "",
                    "initialStateCheck": false
                },
                {
                    "name": "Slot 2",
                    "type": "Button",
                    "id": "72a5180c-fce1-4a14-8362-1c3d1716b0b1",
                    "expectedControlType": "Button",
                    "processors": "",
                    "interactions": "",
                    "initialStateCheck": false
                },
                {
                    "name": "Pause",
                    "type": "Button",
                    "id": "c9338e5a-3559-4a9b-be42-1c851ecfbe75",
                    "expectedControlType": "Button",
                    "processors": "",
                    "interactions": "",
                    "initialStateCheck": false
                }
            ],
            "bindings": [
                {
                    "name": "2D Vector",
                    "id": "0361119b-12a5-4199-8ffc-aa4073c349ee",
                    "path": "2DVector",
                    "interactions": "",
                    "processors": "",
                    "groups": "",
                    "action": "Move",
                    "isComposite": true,
                    "isPartOfComposite": false
                },
                {
                    "name": "up",
                    "id": "6aa8b279-7c64-46a2-ac13-6336fec6c307",
                    "path": "<Keyboard>/w",
                    "interactions": "",
                    "processors": "",
                    "groups": "Keyboard",
                    "action": "Move",
                    "isComposite": false,
                    "isPartOfComposite": true
                },
                {
                    "name": "down",
                    "id": "a4888bfc-a581-41ec-8229-2cec6911e947",
                    "path": "<Keyboard>/s",
                    "interactions": "",
                    "processors": "",
                    "groups": "Keyboard",
                    "action": "Move",
                    "isComposite": false,
                    "isPartOfComposite": true
                },
                {
                    "name": "left",
                    "id": "225708ea-994e-4811-b9cf-211bbb6b2406",
                    "path": "<Keyboard>/a",
                    "interactions": "",
                    "processors": "",
                    "groups": "Keyboard",
                    "action": "Move",
                    "isComposite": false,
                    "isPartOfComposite": true
                },
                {
                    "name": "right",
                    "id": "b711f927-a47e-43c3-bae4-c55aa1bea04b",
                    "path": "<Keyboard>/d",
                    "interactions": "",
                    "processors": "",
                    "groups": "Keyboard",
                    "action": "Move",
                    "isComposite": false,
                    "isPartOfComposite": true
                },
                {
                    "name": "2D Vector",
                    "id": "e890b89c-b4e0-4645-aa43-6b505c3b111c",
                    "path": "2DVector",
                    "interactions": "",
                    "processors": "",
                    "groups": "",
                    "action": "Move",
                    "isComposite": true,
                    "isPartOfComposite": false
                },
                {
                    "name": "up",
                    "id": "c1f13a43-0ed7-4561-9a89-ee9e6b5aaf6e",
                    "path": "<Gamepad>/leftStick/up",
                    "interactions": "",
                    "processors": "",
                    "groups": "Joystick",
                    "action": "Move",
                    "isComposite": false,
                    "isPartOfComposite": true
                },
                {
                    "name": "down",
                    "id": "8f5a2e5a-dee7-4bd4-865b-fcfd494ce2d5",
                    "path": "<Gamepad>/leftStick/down",
                    "interactions": "",
                    "processors": "",
                    "groups": "Joystick",
                    "action": "Move",
                    "isComposite": false,
                    "isPartOfComposite": true
                },
                {
                    "name": "left",
                    "id": "23c08f4b-1e0b-46a9-bd0d-5807060430b0",
                    "path": "<Gamepad>/leftStick/left",
                    "interactions": "",
                    "processors": "",
                    "groups": "Joystick",
                    "action": "Move",
                    "isComposite": false,
                    "isPartOfComposite": true
                },
                {
                    "name": "right",
                    "id": "e4e0e617-d819-4222-b85e-8afe2d888cc8",
                    "path": "<Gamepad>/leftStick/right",
                    "interactions": "",
                    "processors": "",
                    "groups": "Joystick",
                    "action": "Move",
                    "isComposite": false,
                    "isPartOfComposite": true
                },
                {
                    "name": "2D Vector",
                    "id": "bb960746-e81b-4404-8877-1a2b60f8545c",
                    "path": "2DVector",
                    "interactions": "",
                    "processors": "",
                    "groups": "",
                    "action": "Move",
                    "isComposite": true,
                    "isPartOfComposite": false
                },
                {
                    "name": "up",
                    "id": "9137d371-aeeb-4f6c-8313-6a49fe7717a4",
                    "path": "<XInputController>/leftStick/up",
                    "interactions": "",
                    "processors": "",
                    "groups": "JoystickXbox",
                    "action": "Move",
                    "isComposite": false,
                    "isPartOfComposite": true
                },
                {
                    "name": "down",
                    "id": "132563fe-b3b1-4a56-8eb8-ae2f086a4356",
                    "path": "<XInputController>/leftStick/down",
                    "interactions": "",
                    "processors": "",
                    "groups": "JoystickXbox",
                    "action": "Move",
                    "isComposite": false,
                    "isPartOfComposite": true
                },
                {
                    "name": "left",
                    "id": "1243a413-b562-4518-bf10-fa5a8d89e31c",
                    "path": "<XInputController>/leftStick/left",
                    "interactions": "",
                    "processors": "",
                    "groups": "JoystickXbox",
                    "action": "Move",
                    "isComposite": false,
                    "isPartOfComposite": true
                },
                {
                    "name": "right",
                    "id": "a287e073-ca29-4a8c-8204-b19f3b4b010b",
                    "path": "<XInputController>/leftStick/right",
                    "interactions": "",
                    "processors": "",
                    "groups": "JoystickXbox",
                    "action": "Move",
                    "isComposite": false,
                    "isPartOfComposite": true
                },
                {
                    "name": "",
                    "id": "21010989-3e66-4c29-aaa2-a3ad87d3a4ec",
                    "path": "<Keyboard>/space",
                    "interactions": "",
                    "processors": "",
                    "groups": "Keyboard",
                    "action": "Dash",
                    "isComposite": false,
                    "isPartOfComposite": false
                },
                {
                    "name": "",
                    "id": "65f93508-d7d2-462a-8591-a7a3f2e18668",
                    "path": "<Gamepad>/leftTrigger",
                    "interactions": "",
                    "processors": "",
                    "groups": "Joystick",
                    "action": "Dash",
                    "isComposite": false,
                    "isPartOfComposite": false
                },
                {
                    "name": "",
                    "id": "5a48d13e-4d72-46a0-839c-0b98dbc70ec3",
                    "path": "<XInputController>/leftTrigger",
                    "interactions": "",
                    "processors": "",
                    "groups": "JoystickXbox",
                    "action": "Dash",
                    "isComposite": false,
                    "isPartOfComposite": false
                },
                {
                    "name": "",
                    "id": "3d4f037f-7fd0-483c-84b8-6a61a0fd2c79",
                    "path": "<Gamepad>/rightTrigger",
                    "interactions": "",
                    "processors": "",
                    "groups": "Joystick",
                    "action": "Attack",
                    "isComposite": false,
                    "isPartOfComposite": false
                },
                {
                    "name": "",
                    "id": "9ab10bdb-3d41-462c-85f7-4fb7f7723dcc",
                    "path": "<Mouse>/leftButton",
                    "interactions": "",
                    "processors": "",
                    "groups": "Keyboard",
                    "action": "Attack",
                    "isComposite": false,
                    "isPartOfComposite": false
                },
                {
                    "name": "",
                    "id": "31c98ef1-a626-4e29-aeab-6757380d0a37",
                    "path": "<XInputController>/rightTrigger",
                    "interactions": "",
                    "processors": "",
                    "groups": "JoystickXbox",
                    "action": "Attack",
                    "isComposite": false,
                    "isPartOfComposite": false
                },
                {
                    "name": "",
                    "id": "a0be8a4d-567c-4972-85ac-72bf868b81c2",
                    "path": "<Keyboard>/q",
                    "interactions": "",
                    "processors": "",
                    "groups": "Keyboard",
                    "action": "Ability 1",
                    "isComposite": false,
                    "isPartOfComposite": false
                },
                {
                    "name": "",
                    "id": "aa17cc60-1aa3-49bd-948f-71f005f8940e",
                    "path": "<Gamepad>/buttonNorth",
                    "interactions": "",
                    "processors": "",
                    "groups": "Joystick",
                    "action": "Ability 1",
                    "isComposite": false,
                    "isPartOfComposite": false
                },
                {
                    "name": "",
                    "id": "861ab493-eec8-4f66-a7d9-76a55ae6461f",
                    "path": "<XInputController>/buttonNorth",
                    "interactions": "",
                    "processors": "",
                    "groups": "JoystickXbox",
                    "action": "Ability 1",
                    "isComposite": false,
                    "isPartOfComposite": false
                },
                {
                    "name": "",
                    "id": "1a71e259-e663-45de-bd32-6288adf173a0",
                    "path": "<Keyboard>/e",
                    "interactions": "",
                    "processors": "",
                    "groups": "Keyboard",
                    "action": "Ability 2",
                    "isComposite": false,
                    "isPartOfComposite": false
                },
                {
                    "name": "",
                    "id": "7610167b-4edb-43d8-a4c1-7f0e114a0b28",
                    "path": "<Gamepad>/buttonEast",
                    "interactions": "",
                    "processors": "",
                    "groups": "Joystick",
                    "action": "Ability 2",
                    "isComposite": false,
                    "isPartOfComposite": false
                },
                {
                    "name": "",
                    "id": "c7695f3f-035f-4b5b-9577-e2cd91ca9bcc",
                    "path": "<XInputController>/buttonEast",
                    "interactions": "",
                    "processors": "",
                    "groups": "JoystickXbox",
                    "action": "Ability 2",
                    "isComposite": false,
                    "isPartOfComposite": false
                },
                {
                    "name": "",
                    "id": "358e892b-5e05-4ce3-827b-7ba2418684ac",
                    "path": "<Keyboard>/tab",
                    "interactions": "",
                    "processors": "",
                    "groups": "Keyboard",
                    "action": "Show/Hide",
                    "isComposite": false,
                    "isPartOfComposite": false
                },
                {
                    "name": "",
                    "id": "2e107578-7058-419f-a69f-531c7ea9001a",
                    "path": "<Gamepad>/start",
                    "interactions": "",
                    "processors": "",
                    "groups": "Joystick",
                    "action": "Show/Hide",
                    "isComposite": false,
                    "isPartOfComposite": false
                },
                {
                    "name": "",
                    "id": "135e7440-df8a-49fd-bcaf-7ef59f96ec03",
                    "path": "<XInputController>/start",
                    "interactions": "",
                    "processors": "",
                    "groups": "JoystickXbox",
                    "action": "Show/Hide",
                    "isComposite": false,
                    "isPartOfComposite": false
                },
                {
                    "name": "",
                    "id": "2330c1e6-39ed-4819-8a9d-e644c9ecaaa9",
                    "path": "<Keyboard>/p",
                    "interactions": "",
                    "processors": "",
                    "groups": "Keyboard",
                    "action": "Interact Shop",
                    "isComposite": false,
                    "isPartOfComposite": false
                },
                {
                    "name": "",
                    "id": "df03496e-a951-4e29-b714-4ffc798a7565",
                    "path": "<Gamepad>/buttonWest",
                    "interactions": "",
                    "processors": "",
                    "groups": "Joystick",
                    "action": "Interact Shop",
                    "isComposite": false,
                    "isPartOfComposite": false
                },
                {
                    "name": "",
                    "id": "49910473-bfc8-4d80-bbf0-891d743eeede",
                    "path": "<XInputController>/buttonWest",
                    "interactions": "",
                    "processors": "",
                    "groups": "JoystickXbox",
                    "action": "Interact Shop",
                    "isComposite": false,
                    "isPartOfComposite": false
                },
                {
                    "name": "",
                    "id": "4553ae0d-1dde-4e81-b565-c789902c4889",
                    "path": "<Keyboard>/1",
                    "interactions": "",
                    "processors": "",
                    "groups": "Keyboard",
                    "action": "Slot 1",
                    "isComposite": false,
                    "isPartOfComposite": false
                },
                {
                    "name": "",
                    "id": "13a772e1-2c20-4b83-ba74-518a1eaa83ce",
                    "path": "<Gamepad>/dpad/left",
                    "interactions": "",
                    "processors": "",
                    "groups": "Joystick",
                    "action": "Slot 1",
                    "isComposite": false,
                    "isPartOfComposite": false
                },
                {
                    "name": "",
                    "id": "c0617c8e-992b-4f89-a365-e22a957d9ac5",
                    "path": "<XInputController>/dpad/left",
                    "interactions": "",
                    "processors": "",
                    "groups": "JoystickXbox",
                    "action": "Slot 1",
                    "isComposite": false,
                    "isPartOfComposite": false
                },
                {
                    "name": "",
                    "id": "505436ee-1211-4c0e-8998-f97a4afe8521",
                    "path": "<Keyboard>/2",
                    "interactions": "",
                    "processors": "",
                    "groups": "Keyboard",
                    "action": "Slot 2",
                    "isComposite": false,
                    "isPartOfComposite": false
                },
                {
                    "name": "",
                    "id": "f42f4dd8-1104-4717-b878-2fce68effaa6",
                    "path": "<Gamepad>/dpad/right",
                    "interactions": "",
                    "processors": "",
                    "groups": "Joystick",
                    "action": "Slot 2",
                    "isComposite": false,
                    "isPartOfComposite": false
                },
                {
                    "name": "",
                    "id": "aca30d7a-1303-406f-8655-f835f10d839a",
                    "path": "<XInputController>/dpad/right",
                    "interactions": "",
                    "processors": "",
                    "groups": "JoystickXbox",
                    "action": "Slot 2",
                    "isComposite": false,
                    "isPartOfComposite": false
                },
                {
                    "name": "",
                    "id": "a3ad9b62-5726-415f-a5d0-4d75c13b5d7b",
                    "path": "<Keyboard>/escape",
                    "interactions": "",
                    "processors": "",
                    "groups": "Keyboard",
                    "action": "Pause",
                    "isComposite": false,
                    "isPartOfComposite": false
                },
                {
                    "name": "",
                    "id": "d1b69cd3-e1ac-441c-ba39-11dc6f08c2b8",
                    "path": "<Gamepad>/select",
                    "interactions": "",
                    "processors": "",
                    "groups": "Joystick",
                    "action": "Pause",
                    "isComposite": false,
                    "isPartOfComposite": false
                },
                {
                    "name": "",
                    "id": "d67e66f6-372b-42a0-86d8-e55ace24d2c4",
                    "path": "<XInputController>/select",
                    "interactions": "",
                    "processors": "",
                    "groups": "JoystickXbox",
                    "action": "Pause",
                    "isComposite": false,
                    "isPartOfComposite": false
                }
            ]
        }
    ],
    "controlSchemes": [
        {
            "name": "Keyboard",
            "bindingGroup": "Keyboard",
            "devices": [
                {
                    "devicePath": "<Keyboard>",
                    "isOptional": false,
                    "isOR": false
                },
                {
                    "devicePath": "<Mouse>",
                    "isOptional": false,
                    "isOR": false
                }
            ]
        },
        {
            "name": "Joystick",
            "bindingGroup": "Joystick",
            "devices": [
                {
                    "devicePath": "<DualShockGamepad>",
                    "isOptional": false,
                    "isOR": false
                }
            ]
        },
        {
            "name": "JoystickXbox",
            "bindingGroup": "JoystickXbox",
            "devices": [
                {
                    "devicePath": "<XInputController>",
                    "isOptional": false,
                    "isOR": false
                }
            ]
        }
    ]
}