%YAML 1.1
%TAG !u! tag:unity3d.com,2011:
--- !u!114 &11400000
MonoBehaviour:
  m_ObjectHideFlags: 0
  m_CorrespondingSourceObject: {fileID: 0}
  m_PrefabInstance: {fileID: 0}
  m_PrefabAsset: {fileID: 0}
  m_GameObject: {fileID: 0}
  m_Enabled: 1
  m_EditorHideFlags: 0
  m_Script: {fileID: 11500000, guid: e74ad1af42a2efb4da0be83a3a32e3e3, type: 3}
  m_Name: Repel
  m_EditorClassIdentifier: 
  sprite: {fileID: 21300000, guid: 770e3942b86f91847bd9ff3190b50136, type: 3}
  abilityAdvanceSpeed: 0.05
  damageAdaptable: 0
  timeOfCooldown: 5
  scopeAbility: 6
  rangeDetection: 0
  damageAdaptableDrop: 0
